{
    "pilotes": [{
            "id": 1,
            "firstName": "Tony",
            "lastName": "Stark",
            "address": "436  Capitol Avenue, New York",
            "phone": "04950606080"
        },
        {
            "id": 2,
            "firstName": "Steve",
            "lastName": "Rogers",
            "address": "200  Earnhardt Drive, Los Angeles",
            "phone": "0495226080"
        },
        {
            "id": 3,
            "firstName": "Clint",
            "lastName": "Barton",
            "address": "1190  Whiteman Street, Los Angeles",
            "phone": "0495203210"
        },
        {
            "id": 4,
            "firstName": "Bruce",
            "lastName": "Banner",
            "address": "4443  Havanna Street, New York",
            "phone": "0493213210"
        },
        {
            "id": 5,
            "firstName": "Natacha",
            "lastName": "Romanoff",
            "address": "1158  Mount Tabor, San Francisco",
            "phone": "0493210260"
        }
    ],
    "roles": [{
            "id": 1,
            "pilotId": "1",
            "name": "Président"
        },
        {
            "id": 2,
            "pilotId": "2",
            "name": "Secrétaire"
        },
        {
            "id": 3,
            "pilotId": "4",
            "name": "Trésorier"
        }
    ],
    "flights": [{
            "id": 1,
            "flightDate": "2020-01-01T00:00:00",
            "duration": 1,
            "pilotId": 1,
            "paragliderId": 1,
            "takeOffSiteId": 1,
            "landingSiteId": 2
        },
        {
            "id": 2,
            "flightDate": "2020-02-01T00:00:00",
            "duration": 1.25,
            "pilotId": 2,
            "paragliderId": 3,
            "takeOffSiteId": 3,
            "landingSiteId": 2
        },
        {
            "id": 3,
            "flightDate": "2020-01-02T00:00:00",
            "duration": 1.5,
            "pilotId": 3,
            "paragliderId": 2,
            "takeOffSiteId": 1,
            "landingSiteId": 4
        },
        {
            "id": 4,
            "flightDate": "2019-12-01T00:00:00",
            "duration": 2,
            "pilotId": 4,
            "paragliderId": 1,
            "takeOffSiteId": 3,
            "landingSiteId": 2
        },
        {
            "id": 5,
            "flightDate": "2019-08-21T00:00:00",
            "duration": 2.75,
            "pilotId": 5,
            "paragliderId": 3,
            "takeOffSiteId": 1,
            "landingSiteId": 4
        },
        {
            "id": 6,
            "flightDate": "2020-05-20T00:00:00",
            "duration": 1,
            "pilotId": 1,
            "paragliderId": 2,
            "takeOffSiteId": 1,
            "landingSiteId": 2
        },
        {
            "id": 7,
            "flightDate": "2019-05-18T00:00:00",
            "duration": 2,
            "pilotId": 2,
            "paragliderId": 4,
            "takeOffSiteId": 1,
            "landingSiteId": 2
        }
    ],
    "paragliders": [{
            "id": 1,
            "name": "Cabriolet",
            "commissioningDate": "2011-12-05T00:00:00",
            "lastRevision": "2015-10-12T00:00:00",
            "paragliderModelId": 2
        },
        {
            "id": 2,
            "name": "F350",
            "commissioningDate": "2011-07-30T00:00:00",
            "lastRevision": "2016-11-23T00:00:00",
            "paragliderModelId": 3
        },
        {
            "id": 3,
            "name": "Malibu",
            "commissioningDate": "2011-08-18T00:00:00",
            "lastRevision": "2013-03-13T00:00:00",
            "paragliderModelId": 2
        },
        {
            "id": 4,
            "name": "Murciélago",
            "commissioningDate": "2011-11-24T00:00:00",
            "lastRevision": "2015-10-04T00:00:00",
            "paragliderModelId": 1
        }
    ],
    "paragliderModels": [{
            "id": 1,
            "size": "22 m²",
            "minWeightPilot": 50,
            "maxWeightPilot": 70,
            "approvalNumber": "EN/LTF A",
            "approvalDate": "1990-11-24T00:00:00"
        },
        {
            "id": 2,
            "size": "24 m²",
            "minWeightPilot": 60,
            "maxWeightPilot": 80,
            "approvalNumber": "EN/LTF A",
            "approvalDate": "1993-09-24T00:00:00"
        },
        {
            "id": 3,
            "size": "26 m²",
            "minWeightPilot": 85,
            "maxWeightPilot": 110,
            "approvalNumber": "EN/LTF A",
            "approvalDate": "1999-04-26T00:00:00"
        },
        {
            "id": 4,
            "size": "31 m²",
            "minWeightPilot": 100,
            "maxWeightPilot": 130,
            "approvalNumber": "EN/LTF A",
            "approvalDate": "2017-07-26T00:00:00"
        }
    ],
    "sites": [{
            "id": 1,
            "name": "Boom",
            "orientation": "S-E",
            "altitudeTakeOff": 30,
            "approachManeuver": " ",
            "siteGeoCoordinate": "-30.64113, -34.07473",
            "numberOfUse": 4,
            "siteType": 1,
            "levelID": 3
        },
        {
            "id": 2,
            "name": "Hornu",
            "orientation": "N-E",
            "altitudeTakeOff": 0,
            "approachManeuver": "A vue",
            "siteGeoCoordinate": "-30.64113, -34.07472",
            "numberOfUse": 5,
            "siteType": 2,
            "levelID": 1

        },
        {
            "id": 3,
            "name": "Ouren",
            "orientation": "S-O",
            "altitudeTakeOff": 35,
            "approachManeuver": null,
            "siteGeoCoordinate": "-30.64113, -34.07472",
            "numberOfUse": 4,
            "siteType": 1,
            "levelID": 3
        },
        {
            "id": 4,
            "name": "Avister",
            "orientation": "S-O",
            "altitudeTakeOff": 0,
            "approachManeuver": "Aux instruments",
            "siteGeoCoordinate": "-30.64113, -34.07472",
            "numberOfUse": 3,
            "siteType": 2,
            "levelID": 2
        }
    ]
}